{
    "list": [
        {
            "id": 1622,
            "code": "test",
            "name": "测试",
            "value": 203,
            "description": null,
            "parentId": null,
            "creator": null,
            "createTime": "2016-06-07 13:12:23",
            "modifyMan": null,
            "modifyTime": null,
            "remark": null
        },
        {
            "id": 1502,
            "code": "test",
            "name": "测试",
            "value": 2,
            "description": null,
            "parentId": null,
            "creator": null,
            "createTime": "2016-06-02 13:08:18",
            "modifyMan": null,
            "modifyTime": null,
            "remark": null
        },
        {
            "id": 1503,
            "code": "test",
            "name": "测试",
            "value": 3,
            "description": null,
            "parentId": null,
            "creator": null,
            "createTime": "2016-06-02 13:08:18",
            "modifyMan": null,
            "modifyTime": null,
            "remark": null
        },
        {
            "id": 1504,
            "code": "test",
            "name": "测试",
            "value": 4,
            "description": null,
            "parentId": null,
            "creator": null,
            "createTime": "2016-06-02 13:08:19",
            "modifyMan": null,
            "modifyTime": null,
            "remark": null
        },
        {
            "id": 1505,
            "code": "test",
            "name": "测试",
            "value": 5,
            "description": null,
            "parentId": null,
            "creator": null,
            "createTime": "2016-06-02 13:08:19",
            "modifyMan": null,
            "modifyTime": null,
            "remark": null
        },
        {
            "id": 1506,
            "code": "test",
            "name": "测试",
            "value": 6,
            "description": null,
            "parentId": null,
            "creator": null,
            "createTime": "2016-06-02 13:08:19",
            "modifyMan": null,
            "modifyTime": null,
            "remark": null
        },
        {
            "id": 1507,
            "code": "test",
            "name": "测试",
            "value": 7,
            "description": null,
            "parentId": null,
            "creator": null,
            "createTime": "2016-06-02 13:08:19",
            "modifyMan": null,
            "modifyTime": null,
            "remark": null
        },
        {
            "id": 1508,
            "code": "test",
            "name": "测试",
            "value": 8,
            "description": null,
            "parentId": null,
            "creator": null,
            "createTime": "2016-06-02 13:08:20",
            "modifyMan": null,
            "modifyTime": null,
            "remark": null
        },
        {
            "id": 1509,
            "code": "test",
            "name": "测试",
            "value": 9,
            "description": null,
            "parentId": null,
            "creator": null,
            "createTime": "2016-06-02 13:08:20",
            "modifyMan": null,
            "modifyTime": null,
            "remark": null
        },
        {
            "id": 1510,
            "code": "test",
            "name": "测试",
            "value": 10,
            "description": null,
            "parentId": null,
            "creator": null,
            "createTime": "2016-06-02 13:08:20",
            "modifyMan": null,
            "modifyTime": null,
            "remark": null
        }
    ],
    "totalCount": 10099,
    "pageSize": 10,
    "pageNo": 1,
    "firstResult": 0,
    "totalPage": 1010,
    "firstPage": true,
    "lastPage": false,
    "nextPage": 2,
    "prePage": 1
}